Data types
…
# Why should you care about data types?

---

## Example: Cat lovers

A survey asked respondents their name and number of cats. The instructions said to enter the number of cats as a numerical value.

```r
cat_lovers <- read_csv("data/cat-lovers.csv")
```

```
## # A tibble: 60 × 3
##   name           number_of_cats handedness
##   <chr>          <chr>          <chr>     
## 1 Bernice Warren 0              left      
## 2 Woodrow Stone  0              left      
## 3 Willie Bass    1              left      
## 4 Tyrone Estrada 3              left      
## 5 Alex Daniels   3              left      
## 6 Jane Bates     2              left      
## # … with 54 more rows
```
…
- A **time** within a day. Tibbles print this as `<time>`.

- A **date-time** is a date plus a time: it uniquely identifies an instant in time (typically to the nearest second). Tibbles print this as `<dttm>`. Elsewhere in R these are called POSIXct, but I don’t think that’s a very useful name.

---

## When you read in data, check data types

```r
flats <- read_csv("data/flats_sub_2015.csv")
flats
```

```
## # A tibble: 672 × 10
##   date   time     datetime    depth_m salinity_ppt    ph do_mg_l
##   <chr>  <time>   <chr>         <dbl>        <dbl> <dbl>   <dbl>
## 1 7/1/15 00:00:24 7/1/15 0:00   0.741         0.12  8.53   10.2 
## 2 7/1/15 00:15:24 7/1/15 0:15   0.706         0.12  8.45    9.91
## 3 7/1/15 00:30:24 7/1/15 0:30   0.687         0.12  8.38    9.68
## 4 7/1/15 00:45:24 7/1/15 0:45   0.684         0.12  8.29    9.47
## 5 7/1/15 01:00:23 7/1/15 1:00   0.73          0.12  7.94    8.49
## 6 7/1/15 01:15:24 7/1/15 1:15   0.683         0.12  7.67    7.9 
## # … with 666 more rows, and 3 more variables: turb_ntu <dbl>,
## #   chl_ug_l <dbl>, t_c <dbl>
```
…
---

## Coerce flats data into dates/datetimes

```r
flats1 <- flats %>%
* mutate(datetime = mdy_hm(datetime),
*        date = mdy(date))

flats1
```

```
## # A tibble: 672 × 10
##   date       time     datetime            depth_m salinity_ppt
##   <date>     <time>   <dttm>                <dbl>        <dbl>
## 1 2015-07-01 00:00:24 2015-07-01 00:00:00   0.741         0.12
## 2 2015-07-01 00:15:24 2015-07-01 00:15:00   0.706         0.12
## 3 2015-07-01 00:30:24 2015-07-01 00:30:00   0.687         0.12
## 4 2015-07-01 00:45:24 2015-07-01 00:45:00   0.684         0.12
## 5 2015-07-01 01:00:23 2015-07-01 01:00:00   0.73          0.12
## 6 2015-07-01 01:15:24 2015-07-01 01:15:00   0.683         0.12
## # … with 666 more rows, and 5 more variables: ph <dbl>,
## #   do_mg_l <dbl>, turb_ntu <dbl>, chl_ug_l <dbl>, t_c <dbl>
```
…
---

## What if your data contain year, month, day, etc. in separate columns?

```r
flats2 <- flats1 %>%
  select(date, depth_m) %>%
  separate(date, c("year", "month", "day"))
flats2
```

```
## # A tibble: 672 × 4
##   year  month day   depth_m
##   <chr> <chr> <chr>   <dbl>
## 1 2015  07    01      0.741
## 2 2015  07    01      0.706
## 3 2015  07    01      0.687
## 4 2015  07    01      0.684
## 5 2015  07    01      0.73 
## 6 2015  07    01      0.683
## # … with 666 more rows
```

---

## What if your data contain year, month, day, etc. in separate columns?

Use the `make_date()` or `make_datetime` functions!

```r
flats2 %>%
* mutate(date = make_date(year, month, day)) %>%
  select(date, depth_m)
```

```
## # A tibble: 672 × 2
##   date       depth_m
##   <date>       <dbl>
## 1 2015-07-01   0.741
## 2 2015-07-01   0.706
## 3 2015-07-01   0.687
## 4 2015-07-01   0.684
## 5 2015-07-01   0.73 
## 6 2015-07-01   0.683
## # … with 666 more rows
```
…
